quartusWorkspace/mergeTest/simulation/qsim/mergeTest.msim.vcd
$comment
	File created using the following command:
		vcd file mergeTest.msim.vcd -direction
$end
$date
	Fri Aug 06 12:29:43 2021
$end
$version
	ModelSim Version 10.1d
$end
$timescale
	1ps
$end
$scope module regLoad_vlg_vec_tst $end
$var reg 1 ! clk $end
$var reg 12 " inba [11:0] $end
$var reg 2 # load [1:0] $end
$var reg 1 $ rst $end
$var wire 1 % y [11] $end
$var wire 1 & y [10] $end
$var wire 1 ' y [9] $end
$var wire 1 ( y [8] $end
$var wire 1 ) y [7] $end
$var wire 1 * y [6] $end
$var wire 1 + y [5] $end
$var wire 1 , y [4] $end
$var wire 1 - y [3] $end
$var wire 1 . y [2] $end
$var wire 1 / y [1] $end
$var wire 1 0 y [0] $end
$var wire 1 1 sampler $end
$scope module i1 $end
$var wire 1 2 gnd $end
$var wire 1 3 vcc $end
$var wire 1 4 unknown $end
$var tri1 1 5 devclrn $end
$var tri1 1 6 devpor $end
$var tri1 1 7 devoe $end
$var wire 1 8 inba[0]~input_o $end
$var wire 1 9 inba[1]~input_o $end
$var wire 1 : inba[2]~input_o $end
$var wire 1 ; inba[3]~input_o $end
$var wire 1 < inba[4]~input_o $end
$var wire 1 = inba[5]~input_o $end
$var wire 1 > inba[6]~input_o $end
$var wire 1 ? inba[7]~input_o $end
$var wire 1 @ inba[8]~input_o $end
$var wire 1 A inba[9]~input_o $end
$var wire 1 B inba[10]~input_o $end
$var wire 1 C inba[11]~input_o $end
$var wire 1 D y[0]~output_o $end
$var wire 1 E y[1]~output_o $end
$var wire 1 F y[2]~output_o $end
$var wire 1 G y[3]~output_o $end
$var wire 1 H y[4]~output_o $end
$var wire 1 I y[5]~output_o $end
$var wire 1 J y[6]~output_o $end
$var wire 1 K y[7]~output_o $end
$var wire 1 L y[8]~output_o $end
$var wire 1 M y[9]~output_o $end
$var wire 1 N y[10]~output_o $end
$var wire 1 O y[11]~output_o $end
$var wire 1 P clk~input_o $end
$var wire 1 Q clk~inputclkctrl_outclk $end
$var wire 1 R tempa[0]~feeder_combout $end
$var wire 1 S rst~input_o $end
$var wire 1 T rst~inputclkctrl_outclk $end
$var wire 1 U load[0]~input_o $end
$var wire 1 V tempa[1]~feeder_combout $end
$var wire 1 W tempb[0]~feeder_combout $end
$var wire 1 X load[1]~input_o $end
$var wire 1 Y tempb[0]~0_combout $end
$var wire 1 Z tempb[1]~feeder_combout $end
$var wire 1 [ tempb [5] $end
$var wire 1 \ tempb [4] $end
$var wire 1 ] tempb [3] $end
$var wire 1 ^ tempb [2] $end
$var wire 1 _ tempb [1] $end
$var wire 1 ` tempb [0] $end
$var wire 1 a tempa [5] $end
$var wire 1 b tempa [4] $end
$var wire 1 c tempa [3] $end
$var wire 1 d tempa [2] $end
$var wire 1 e tempa [1] $end
$var wire 1 f tempa [0] $end
$upscope $end
$upscope $end
$enddefinitions $end
#0
$dumpvars
0!
b0 "
b0 #
0$
00
0/
0.
0-
0,
0+
0*
0)
0(
0'
0&
0%
x1
02
13
x4
15
16
17
08
09
0:
0;
0<
0=
0>
0?
0@
0A
0B
0C
0D
0E
0F
0G
0H
0I
0J
0K
0L
0M
0N
0O
0P
0Q
1R
0S
0T
0U
1V
1W
0X
0Y
1Z
0`
0_
z^
z]
z\
z[
0f
0e
zd
zc
zb
za
$end
#10000
1!
1$
1P
1S
1Q
1T
01
#20000
0!
0$
0P
0S
0Q
0T
11
#30000
1!
1$
1P
1S
1Q
1T
01
#40000
0!
0P
0Q
11
#50000
b10000 "
b10001 "
b1 #
1!
1U
18
1<
1P
1Q
01
1e
1f
1E
1D
1/
10
#60000
b1 "
b0 "
b0 #
0!
0U
08
0<
0P
0Q
11
#70000
b10 #
1!
1X
1P
1Q
01
1Y
#80000
0!
0P
0Q
11
#90000
b0 #
1!
0X
1P
1Q
01
0Y
1_
1`
1K
1J
1)
1*
#100000
0!
0P
0Q
11
#110000
0$
1!
0S
1P
0T
1Q
01
0_
0`
0e
0f
0K
0J
0E
0D
0)
0*
0/
00
#120000
0!
0P
0Q
11
#130000
1!
1P
1Q
01
#140000
0!
0P
0Q
11
#150000
1!
1P
1Q
01
#160000
0!
0P
0Q
11
#170000
1!
1P
1Q
01
#180000
0!
0P
0Q
11
#190000
1!
1P
1Q
01
#200000
0!
0P
0Q
11
#210000
1!
1P
1Q
01
#220000
0!
0P
0Q
11
#230000
1!
1P
1Q
01
#240000
0!
0P
0Q
11
#250000
1!
1P
1Q
01
#260000
0!
0P
0Q
11
#270000
1!
1P
1Q
01
#280000
0!
0P
0Q
11
#290000
1!
1P
1Q
01
#300000
0!
0P
0Q
11
#310000
1!
1P
1Q
01
#320000
0!
0P
0Q
11
#330000
1!
1P
1Q
01
#340000
0!
0P
0Q
11
#350000
1!
1P
1Q
01
#360000
0!
0P
0Q
11
#370000
1!
1P
1Q
01
#380000
0!
0P
0Q
11
#390000
1!
1P
1Q
01
#400000
0!
0P
0Q
11
#410000
1!
1P
1Q
01
#420000
0!
0P
0Q
11
#430000
1!
1P
1Q
01
#440000
0!
0P
0Q
11
#450000
1!
1P
1Q
01
#460000
0!
0P
0Q
11
#470000
1!
1P
1Q
01
#480000
0!
0P
0Q
11
#490000
1!
1P
1Q
01
#500000
0!
0P
0Q
11
#510000
1!
1P
1Q
01
#520000
0!
0P
0Q
11
#530000
1!
1P
1Q
01
#540000
0!
0P
0Q
11
#550000
1!
1P
1Q
01
#560000
0!
0P
0Q
11
#570000
1!
1P
1Q
01
#580000
0!
0P
0Q
11
#590000
1!
1P
1Q
01
#600000
0!
0P
0Q
11
#610000
1!
1P
1Q
01
#620000
0!
0P
0Q
11
#630000
1!
1P
1Q
01
#640000
0!
0P
0Q
11
#650000
1!
1P
1Q
01
#660000
0!
0P
0Q
11
#670000
1!
1P
1Q
01
#680000
0!
0P
0Q
11
#690000
1!
1P
1Q
01
#700000
0!
0P
0Q
11
#710000
1!
1P
1Q
01
#720000
0!
0P
0Q
11
#730000
1!
1P
1Q
01
#740000
0!
0P
0Q
11
#750000
1!
1P
1Q
01
#760000
0!
0P
0Q
11
#770000
1!
1P
1Q
01
#780000
0!
0P
0Q
11
#790000
1!
1P
1Q
01
#800000
0!
0P
0Q
11
#810000
1!
1P
1Q
01
#820000
0!
0P
0Q
11
#830000
1!
1P
1Q
01
#840000
0!
0P
0Q
11
#850000
1!
1P
1Q
01
#860000
0!
0P
0Q
11
#870000
1!
1P
1Q
01
#880000
0!
0P
0Q
11
#890000
1!
1P
1Q
01
#900000
0!
0P
0Q
11
#910000
1!
1P
1Q
01
#920000
0!
0P
0Q
11
#930000
1!
1P
1Q
01
#940000
0!
0P
0Q
11
#950000
1!
1P
1Q
01
#960000
0!
0P
0Q
11
#970000
1!
1P
1Q
01
#980000
0!
0P
0Q
11
#990000
1!
1P
1Q
01
